%YAML 1.1
%TAG !u! tag:unity3d.com,2011:
--- !u!114 &11400000
MonoBehaviour:
  m_ObjectHideFlags: 0
  m_CorrespondingSourceObject: {fileID: 0}
  m_PrefabInternal: {fileID: 0}
  m_GameObject: {fileID: 0}
  m_Enabled: 1
  m_EditorHideFlags: 0
  m_Script: {fileID: 11500000, guid: 25ec323f1f014654db74ee55c0422c8f, type: 3}
  m_Name: AIConfig
  m_EditorClassIdentifier: 
  maxVelocity: 9
  smoothing: 0.95
  loadDelay: 2
  type: 0
